%!PS-Adobe-3.0 EPSF-3.0
%%Creator: cairo 1.13.1 (http://cairographics.org)
%%CreationDate: Fri Oct 10 15:32:47 2014
%%Pages: 1
%%DocumentData: Clean7Bit
%%LanguageLevel: 2
%%BoundingBox: 0 -1 292 243
%%EndComments
%%BeginProlog
save
50 dict begin
/q { gsave } bind def
/Q { grestore } bind def
/cm { 6 array astore concat } bind def
/w { setlinewidth } bind def
/J { setlinecap } bind def
/j { setlinejoin } bind def
/M { setmiterlimit } bind def
/d { setdash } bind def
/m { moveto } bind def
/l { lineto } bind def
/c { curveto } bind def
/h { closepath } bind def
/re { exch dup neg 3 1 roll 5 3 roll moveto 0 rlineto
      0 exch rlineto 0 rlineto closepath } bind def
/S { stroke } bind def
/f { fill } bind def
/f* { eofill } bind def
/n { newpath } bind def
/W { clip } bind def
/W* { eoclip } bind def
/BT { } bind def
/ET { } bind def
/pdfmark where { pop globaldict /?pdfmark /exec load put }
    { globaldict begin /?pdfmark /pop load def /pdfmark
    /cleartomark load def end } ifelse
/BDC { mark 3 1 roll /BDC pdfmark } bind def
/EMC { mark /EMC pdfmark } bind def
/cairo_store_point { /cairo_point_y exch def /cairo_point_x exch def } def
/Tj { show currentpoint cairo_store_point } bind def
/TJ {
  {
    dup
    type /stringtype eq
    { show } { -0.001 mul 0 cairo_font_matrix dtransform rmoveto } ifelse
  } forall
  currentpoint cairo_store_point
} bind def
/cairo_selectfont { cairo_font_matrix aload pop pop pop 0 0 6 array astore
    cairo_font exch selectfont cairo_point_x cairo_point_y moveto } bind def
/Tf { pop /cairo_font exch def /cairo_font_matrix where
      { pop cairo_selectfont } if } bind def
/Td { matrix translate cairo_font_matrix matrix concatmatrix dup
      /cairo_font_matrix exch def dup 4 get exch 5 get cairo_store_point
      /cairo_font where { pop cairo_selectfont } if } bind def
/Tm { 2 copy 8 2 roll 6 array astore /cairo_font_matrix exch def
      cairo_store_point /cairo_font where { pop cairo_selectfont } if } bind def
/g { setgray } bind def
/rg { setrgbcolor } bind def
/d1 { setcachedevice } bind def
%%EndProlog
%%BeginSetup
%%EndSetup
%%Page: 1 1
%%BeginPageSetup
%%PageBoundingBox: 0 -1 292 243
%%EndPageSetup
q 0 -1 292 244 rectclip q
0 0 1 rg
2.67059 w
0 J
0 j
[] 0.0 d
4 M 151.402 133.858 m 175.68 133.858 l S
0 g
151.402 112.612 m 175.68 112.612 l S
0.668264 w
[ 1.33653 0.668264] 0 d
3.6 M 181.512 123.342 m 181.512 113.061 173.176 104.717 162.891 104.717 c 152.602
 104.717 144.266 113.061 144.266 123.342 c 144.266 133.628 152.602 141.967
 162.891 141.967 c 173.137 141.967 181.461 133.69 181.512 123.44 c S
1.2139 w
[] 0.0 d
4 M 180.652 130.811 m 146.086 217.389 l S
152.422 107.549 m 72.316 153.628 l S
1.783407 w
[ 3.566814 1.783407] 0 d
3.6 M q 1 0 0 -0.961783 0 242.943939 cm
151.469 50.594 m 151.469 78.041 129.215 100.298 101.766 100.298 c 74.313
 100.298 52.059 78.041 52.059 50.594 c 52.059 23.138 74.313 0.885 101.766
 0.885 c 129.113 0.885 151.328 22.988 151.469 50.338 c S Q
2.90528 w
[] 0.0 d
4 M 86.527 153.397 m 120.391 153.397 l S
86.617 161.452 m 120.48 161.452 l S
86.508 169.878 m 120.375 169.878 l S
86.398 178.514 m 120.266 178.514 l S
0 0 1 rg
2.89605 w
86.293 208.139 m 120.16 208.139 l S
86.379 216.311 m 120.246 216.311 l S
86.273 224.69 m 120.137 224.69 l S
86.164 233.264 m 120.031 233.264 l S
0 g
1.30312 w
83.594 155.663 m 83.703 203.506 l S
83.598 157.229 m 82.301 158.534 l 83.594 153.967 l 84.906 158.526 l f*
0.325778 w
83.598 157.229 m 82.301 158.534 l 83.594 153.967 l 84.906 158.526 l h
83.598 157.229 m S
83.699 201.944 m 85 200.639 l 83.707 205.202 l 82.391 200.647 l f*
83.699 201.944 m 85 200.639 l 83.707 205.202 l 82.391 200.647 l h
83.699 201.944 m S
0.675344 w
117.395 171.827 m 117.5 176.327 l S
117.41 172.635 m 116.754 173.327 l 117.371 170.952 l 118.105 173.296 l f*
0.168836 w
117.41 172.635 m 116.754 173.327 l 117.371 170.952 l 118.105 173.296 l 
h
117.41 172.635 m S
117.48 175.514 m 118.141 174.827 l 117.52 177.202 l 116.789 174.858 l f*
117.48 175.514 m 118.141 174.827 l 117.52 177.202 l 116.789 174.858 l h
117.48 175.514 m S
0 0 1 rg
0.932361 w
115.879 210.651 m 115.984 214.897 l S
115.906 211.772 m 115 212.729 l 115.848 209.44 l 116.863 212.678 l f*
0.233091 w
115.906 211.772 m 115 212.729 l 115.848 209.44 l 116.863 212.678 l h
115.906 211.772 m S
0 g
131.41 172.596 m 131.086 172.596 l 131.02 172.256 130.965 171.956 130.852
 171.647 c 130.785 171.44 130.746 171.335 129.992 171.335 c 128.953 171.335
 l 129.121 172.065 129.527 172.69 130.113 173.538 c 130.723 174.467 131.25
 175.362 131.25 176.385 c 131.25 178.19 129.504 179.647 127.305 179.647 
c 125.074 179.647 123.348 178.163 123.348 176.385 c 123.348 175.362 123.879
 174.467 124.488 173.538 c 125.059 172.69 125.473 172.065 125.645 171.335
 c 124.602 171.335 l 123.852 171.335 123.812 171.44 123.746 171.635 c 123.645
 171.936 123.582 172.272 123.516 172.596 c 123.191 172.596 l 123.621 170.487
 l 125.695 170.487 l 125.984 170.487 126.02 170.487 126.02 170.764 c 126.02
 171.671 125.621 172.815 125.316 173.647 c 125.047 174.401 124.684 175.424
 124.684 176.397 c 124.684 178.479 126.113 179.358 127.293 179.358 c 128.539
 179.358 129.918 178.421 129.918 176.397 c 129.918 175.424 129.566 174.44
 129.184 173.374 c 128.996 172.827 128.578 171.659 128.578 170.764 c 128.578
 170.487 128.617 170.487 128.914 170.487 c 130.977 170.487 l f
122.203 213.381 m 122.262 213.546 l 122.293 213.624 l 122.332 213.706 l
 122.367 213.784 l 122.406 213.854 l 122.48 213.987 l 122.523 214.049 l 
122.605 214.174 l 122.652 214.233 l 122.738 214.342 l 122.832 214.444 l 
122.93 214.538 l 123.027 214.624 l 123.129 214.702 l 123.332 214.835 l 123.434
 214.897 l 123.535 214.952 l 123.633 214.995 l 123.734 215.034 l 123.832
 215.069 l 123.926 215.108 l 124.02 215.128 l 124.109 215.151 l 124.195 
215.167 l 124.273 215.19 l 124.352 215.202 l 124.422 215.206 l 124.488 215.213
 l 124.551 215.221 l 124.602 215.229 l 124.645 215.229 l 124.684 215.233
 l 124.734 215.233 l 127.137 215.233 127.312 212.44 127.312 211.186 c 127.312
 210.206 127.23 209.94 127.121 209.62 c 126.773 208.46 126.293 206.608 126.293
 206.202 c 126.293 206.022 126.371 205.909 126.504 205.909 c 126.707 205.909
 126.84 206.26 127.012 206.87 c 127.379 208.202 127.539 209.108 127.602 
209.604 c 127.633 209.815 127.66 210.022 127.727 210.233 c 128.238 211.799
 129.258 214.174 129.898 215.436 c 130.008 215.624 130.195 215.979 130.195
 216.038 c 130.195 216.202 130.039 216.202 130.008 216.202 c 129.961 216.202
 129.859 216.202 129.816 216.088 c 128.988 214.577 128.352 212.983 127.711
 211.37 c 127.699 211.87 127.684 213.077 127.059 214.624 c 126.68 215.592
 126.043 216.37 124.941 216.37 c 122.949 216.37 121.832 213.952 121.832 
213.46 c 121.832 213.299 121.977 213.299 122.137 213.299 c f
265.391 88.253 m 265.383 88.233 l 265.379 88.21 l 265.367 88.178 l 265.359
 88.143 l 265.348 88.108 l 265.344 88.081 l 265.332 88.061 l 265.324 88.03
 l 265.316 87.983 l 265.297 87.909 l 265.297 87.889 l 265.285 87.858 l 265.285
 87.838 l 265.281 87.819 l 265.281 87.784 l 265.273 87.776 l 265.273 87.682
 l 265.27 87.651 l 265.27 87.577 l 265.27 87.057 265.688 86.784 266.133 
86.784 c 267.004 86.784 267.188 87.483 267.418 88.421 c 267.715 89.483 267.543
 88.932 268.809 93.87 c 271.281 93.788 273.832 93.288 273.832 91.37 c 273.832
 91.163 273.832 91.018 273.781 90.725 c 273.66 90.253 273.633 89.932 273.633
 89.698 c 273.633 87.956 274.805 86.784 276.34 86.784 c 277.281 86.784 278.047
 87.311 278.637 88.315 c 279.375 89.553 279.727 91.256 279.727 91.315 c 
279.727 91.608 279.457 91.608 279.375 91.608 c 279.082 91.608 279.051 91.487
 278.965 91.077 c 278.395 89.042 277.723 87.436 276.406 87.436 c 275.785
 87.436 275.461 87.815 275.461 88.846 c 275.461 89.288 275.57 89.983 275.688
 90.491 c 275.754 90.749 275.836 91.139 275.836 91.46 c 275.836 94.233 271.781
 94.44 270.125 94.491 c 271.105 95.03 272.043 95.819 272.84 96.495 c 274.195
 97.643 275.047 98.354 276.23 98.846 c 276.164 98.694 276.078 98.354 276.078
 98.202 c 276.078 97.858 276.281 97.167 277.199 97.167 c 278.145 97.167 
278.785 98.026 278.785 98.76 c 278.785 99.022 278.668 99.788 277.602 99.788
 c 275.812 99.788 274.078 98.319 272.777 97.233 c 270.781 95.53 270.07 95.081
 269.008 94.733 c 269.102 95.053 269.449 96.526 269.598 97.034 c 269.777
 97.784 270.125 99.171 270.125 99.319 c 270.125 99.815 269.777 100.108 269.277
 100.108 c 269.184 100.108 268.363 100.108 268.098 99.061 c f
0 0 1 rg
2.67059 w
168.965 56.116 m 193.242 56.116 l S
0 g
168.965 34.874 m 193.242 34.874 l S
2.1235 w
181.594 35.733 m 181.746 52.284 l S
181.723 49.733 m 183.828 47.588 l 181.77 55.042 l 179.582 47.628 l f*
0.530876 w
181.723 49.733 m 183.828 47.588 l 181.77 55.042 l 179.582 47.628 l h
181.723 49.733 m S
170.574 52.237 m 163.043 52.237 l 163.043 51.792 l 163.391 51.792 l 164.5
 51.792 164.535 51.631 164.535 51.116 c 164.535 43.538 l 164.535 43.01 164.5
 42.858 163.391 42.858 c 163.043 42.858 l 163.043 42.409 l 163.551 42.452
 164.68 42.452 165.242 42.452 c 165.84 42.452 167.152 42.452 167.672 42.409
 c 167.672 42.858 l 167.191 42.858 l 165.816 42.858 165.816 43.042 165.816
 43.553 c 165.816 51.213 l 165.816 51.69 165.848 51.792 166.531 51.792 c
 168.02 51.792 l 170.086 51.792 170.391 50.94 170.621 48.987 c 170.984 48.987
 l f
174.797 45.792 m 174.879 45.678 l 174.965 45.569 l 175.051 45.471 l 175.23
 45.284 l 175.324 45.198 l 175.414 45.12 l 175.508 45.046 l 175.602 44.983
 l 175.688 44.909 l 175.785 44.85 l 175.961 44.741 l 176.051 44.694 l 176.133
 44.651 l 176.219 44.608 l 176.379 44.534 l 176.453 44.51 l 176.523 44.483
 l 176.594 44.46 l 176.66 44.44 l 176.719 44.417 l 176.777 44.405 l 176.824
 44.385 l 176.871 44.378 l 176.914 44.37 l 176.949 44.362 l 176.977 44.358
 l 177.023 44.358 l 177.172 44.358 177.172 44.499 177.172 44.6 c 177.172
 44.702 177.172 44.815 177.039 44.835 c 176.629 44.952 175.207 45.315 174.715
 47.057 c 174.664 47.206 174.656 47.268 174.547 47.268 c 174.473 47.268 
174.434 47.206 174.406 47.151 c 174.285 46.725 173.895 45.323 172.152 44.866
 c 171.953 44.815 171.926 44.815 171.926 44.6 c 171.926 44.499 171.926 44.358
 172.074 44.358 c 172.125 44.358 173.418 44.561 174.301 45.792 c 174.301
 38.69 l 174.301 38.534 174.301 38.284 174.539 38.284 c 174.797 38.284 174.797
 38.518 174.797 38.69 c f
0 0 1 rg
2.67059 w
129.02 103.631 m 153.297 103.631 l S
0 g
129.02 82.385 m 153.297 82.385 l S
0 0 1 rg
2.12609 w
140.621 102.835 m 140.777 86.241 l S
140.754 88.792 m 138.609 90.901 l 140.805 83.483 l 142.859 90.94 l f*
0.531523 w
140.754 88.792 m 138.609 90.901 l 140.805 83.483 l 142.859 90.94 l h
140.754 88.792 m S
0 g
128.949 99.753 m 121.145 99.753 l 121.145 99.292 l 121.504 99.292 l 122.656
 99.292 122.691 99.124 122.691 98.588 c 122.691 90.733 l 122.691 90.194 
122.656 90.034 121.504 90.034 c 121.145 90.034 l 121.145 89.565 l 121.672
 89.616 122.84 89.616 123.426 89.616 c 124.043 89.616 125.406 89.616 125.941
 89.565 c 125.941 90.034 l 125.445 90.034 l 124.02 90.034 124.02 90.233 
124.02 90.749 c 124.02 98.694 l 124.02 99.19 124.055 99.292 124.762 99.292
 c 126.301 99.292 l 128.445 99.292 128.758 98.409 129 96.385 c 129.375 96.385
 l f
133.324 94.182 m 133.324 94.249 l 133.32 94.284 l 133.32 94.303 l 133.316
 94.319 l 133.316 94.335 l 133.312 94.37 l 133.309 94.385 l 133.309 94.409
 l 133.305 94.428 l 133.297 94.44 l 133.293 94.456 l 133.281 94.487 l 133.27
 94.503 l 133.262 94.514 l 133.254 94.534 l 133.219 94.565 l 133.211 94.565
 l 133.207 94.569 l 133.199 94.573 l 133.191 94.581 l 133.176 94.585 l 133.164
 94.588 l 133.152 94.588 l 133.145 94.6 l 133.137 94.608 l 133.07 94.608
 l 132.816 94.608 132.816 94.358 132.816 94.182 c 132.816 86.827 l 131.902
 88.108 130.559 88.315 130.504 88.315 c 130.352 88.315 130.352 88.163 130.352
 88.065 c 130.352 87.944 130.352 87.838 130.488 87.815 c 130.82 87.721 131.461
 87.553 132.047 86.983 c 132.652 86.385 132.824 85.784 132.906 85.51 c 132.934
 85.378 132.957 85.292 133.07 85.292 c 133.18 85.292 133.191 85.358 133.25
 85.565 c 133.523 86.499 134.238 87.436 135.551 87.784 c 135.758 87.831 
135.793 87.838 135.793 88.065 c 135.793 88.163 135.793 88.315 135.633 88.315
 c 135.574 88.315 134.238 88.108 133.324 86.827 c f
0 0 1 rg
2.67059 w
69.004 132.721 m 93.281 132.721 l S
0 g
69.004 111.483 m 93.281 111.483 l S
2.1235 w
72.918 112.385 m 73.07 128.944 l S
73.047 126.397 m 75.148 124.253 l 73.098 131.702 l 70.902 124.288 l f*
0.530876 w
73.047 126.397 m 75.148 124.253 l 73.098 131.702 l 70.902 124.288 l h
73.047 126.397 m S
1 0 0 rg
0.613638 w
54.016 122.088 m 54.336 119.276 54.652 116.463 55.379 116.428 c 56.832 
116.37 57.012 127.549 58.465 127.483 c 59.918 127.421 59.738 116.233 61.195
 116.167 c 62.066 116.124 62.328 118.913 62.734 121.694 c S
0.613628 w
62.734 121.694 m 63.145 124.471 63.555 127.253 64.281 127.217 c 65.73 127.151
 65.555 115.967 67.008 115.901 c 68.461 115.835 68.641 127.022 70.094 126.956
 c 70.965 126.917 71.141 124.108 71.457 121.292 c S
71.184 123.733 m 69.824 124.815 l 71.527 120.69 l 72.266 125.088 l f*
0.306814 w
71.184 123.733 m 69.824 124.815 l 71.527 120.69 l 72.266 125.088 l h
71.184 123.733 m S
0 g
1.85909 w
23.371 117.514 m 9.652 103.327 10.188 78.385 10.176 59.393 c S
23.379 1.323 m 9.66 15.51 10.234 40.296 10.184 59.44 c S
1.82085 w
23.043 116.987 m 0.973 117.065 l 0.898 1.725 l 22.738 1.725 l S
1.85909 w
62.25 161.026 m 48.527 146.838 50.039 122.229 50.027 103.233 c S
1.82085 w
22.922 116.87 m 26.457 140.495 39.402 151.171 61.727 160.346 c S
0.922 117.299 m 40.738 161.217 l S
23.203 2.065 m 26.738 25.69 38.438 37.042 60.996 45.983 c 47.508 59.917
 50.086 84.135 50.035 103.276 c S
40.051 160.764 m 62.051 160.659 l S
1 0 0 rg
1.39336 w
260.715 32.44 m 264.375 35.858 268.031 39.264 269.801 38.053 c 273.336 
35.608 262.234 19.518 265.766 17.081 c 269.297 14.643 280.398 30.733 283.934
 28.296 c 286.051 26.835 283.809 22.444 281.914 17.815 c S
282.547 19.362 m 281.785 21.182 l 281.23 16.139 l 284.363 20.124 l f*
0.348342 w
282.547 19.362 m 281.785 21.182 l 281.23 16.139 l 284.363 20.124 l h
282.547 19.362 m S
1.39336 w
266.891 132.042 m 270.551 128.628 274.207 125.213 275.977 126.44 c 279.508
 128.87 268.41 144.96 271.941 147.401 c 275.473 149.835 286.574 133.745 
290.109 136.19 c 292.227 137.647 289.98 142.034 288.09 146.667 c S
288.723 145.12 m 290.539 144.358 l 287.406 148.342 l 287.961 143.299 l f*
0.348342 w
288.723 145.12 m 290.539 144.358 l 287.406 148.342 l 287.961 143.299 l 
h
288.723 145.12 m S
0 0 1 rg
2.67059 w
93.781 58.628 m 118.059 58.628 l S
0 g
93.781 37.385 m 118.059 37.385 l S
0 0 1 rg
2.12609 w
113.82 57.815 m 113.973 41.221 l S
113.949 43.776 m 111.801 45.878 l 113.996 38.456 l 116.055 45.917 l f*
0.531523 w
113.949 43.776 m 111.801 45.878 l 113.996 38.456 l 116.055 45.917 l h
113.949 43.776 m S
1 0 0 rg
0.613638 w
114.844 48.932 m 115.164 46.12 115.48 43.311 116.211 43.276 c 117.66 43.206
 117.844 54.393 119.293 54.323 c 120.75 54.26 120.57 43.073 122.023 43.006
 c 122.895 42.971 123.16 45.753 123.566 48.534 c S
0.613628 w
123.566 48.534 m 123.973 51.315 124.383 54.096 125.109 54.065 c 126.562
 53.995 126.387 42.811 127.84 42.741 c 129.293 42.678 129.473 53.862 130.926
 53.796 c 131.797 53.756 131.969 50.948 132.289 48.135 c S
132.016 50.577 m 130.656 51.659 l 132.359 47.53 l 133.094 51.936 l f*
0.306814 w
132.016 50.577 m 130.656 51.659 l 132.359 47.53 l 133.094 51.936 l h
132.016 50.577 m S
0 g
72.703 53.815 m 65.609 53.815 l 65.609 53.389 l 65.934 53.389 l 66.984 
53.389 67.012 53.237 67.012 52.753 c 67.012 45.616 l 67.012 45.124 66.984
 44.983 65.934 44.983 c 65.609 44.983 l 65.609 44.553 l 66.086 44.6 67.148
 44.6 67.68 44.6 c 68.238 44.6 69.477 44.6 69.969 44.553 c 69.969 44.983
 l 69.516 44.983 l 68.223 44.983 68.223 45.151 68.223 45.624 c 68.223 52.85
 l 68.223 53.296 68.25 53.389 68.895 53.389 c 70.293 53.389 l 72.242 53.389
 72.527 52.588 72.746 50.749 c 73.09 50.749 l f
78.164 41.444 m 78.164 41.471 l 78.16 41.475 l 78.16 41.483 l 78.148 41.503
 l 78.145 41.51 l 78.141 41.514 l 78.137 41.526 l 78.121 41.538 l 78.117
 41.553 l 78.082 41.585 l 78.078 41.596 l 78.055 41.62 l 78.043 41.624 l
 78.043 41.631 l 78.031 41.643 l 78.027 41.655 l 78.02 41.659 l 78.008 41.667
 l 78.004 41.678 l 77.992 41.69 l 77.973 41.702 l 77.965 41.713 l 77.934
 41.745 l 76.234 43.463 75.797 46.034 75.797 48.116 c 75.797 50.487 76.316
 52.862 77.988 54.565 c 78.164 54.733 78.164 54.753 78.164 54.796 c 78.164
 54.893 78.113 54.936 78.035 54.936 c 77.898 54.936 76.668 54.006 75.867
 52.28 c 75.172 50.78 75.008 49.264 75.008 48.116 c 75.008 47.057 75.156
 45.409 75.906 43.87 c 76.719 42.19 77.898 41.311 78.035 41.311 c 78.113
 41.311 78.164 41.35 78.164 41.444 c f
87.914 47.682 m 88.004 47.682 l 88.047 47.686 l 88.066 47.686 l 88.086 
47.69 l 88.129 47.69 l 88.152 47.694 l 88.168 47.698 l 88.191 47.702 l 88.207
 47.706 l 88.258 47.733 l 88.273 47.733 l 88.293 47.737 l 88.305 47.753 
l 88.316 47.76 l 88.359 47.807 l 88.375 47.838 l 88.375 47.85 l 88.387 47.874
 l 88.391 47.901 l 88.391 47.909 l 88.395 47.921 l 88.395 47.956 l 88.395
 48.233 88.148 48.233 87.918 48.233 c 80.547 48.233 l 80.316 48.233 80.074
 48.233 80.074 47.956 c 80.074 47.686 80.316 47.686 80.547 47.686 c f
93.137 50.503 m 92.977 50.46 l 92.824 50.409 l 92.664 50.358 l 92.516 50.288
 l 92.371 50.221 l 92.223 50.139 l 92.082 50.057 l 91.941 49.963 l 91.809
 49.87 l 91.68 49.764 l 91.555 49.659 l 91.43 49.546 l 91.312 49.436 l 91.199
 49.311 l 91.09 49.186 l 90.984 49.057 l 90.789 48.784 l 90.703 48.643 l
 90.617 48.499 l 90.539 48.358 l 90.469 48.21 l 90.344 47.913 l 90.289 47.756
 l 90.246 47.608 l 90.207 47.448 l 90.172 47.296 l 90.145 47.139 l 90.125
 46.983 l 90.113 46.831 l 90.109 46.671 l 90.109 45.366 90.984 44.385 92.262
 44.385 c 92.262 44.69 l 91.512 44.69 90.957 45.256 90.957 46.292 c 90.957
 47.151 91.461 49.71 93.297 50.202 c 93.637 49.581 94.047 48.846 94.047 
47.862 c 94.047 46.96 93.531 44.69 92.262 44.69 c 92.262 44.385 l 93.859
 44.385 94.984 46.526 94.984 48.405 c 94.984 49.651 94.445 50.327 93.98 
50.94 c 93.488 51.557 92.688 52.573 92.688 53.171 c 92.688 53.483 92.957
 53.807 93.434 53.807 c 93.844 53.807 94.113 53.624 94.398 53.436 c 94.672
 53.276 94.949 53.096 95.152 53.096 c 95.492 53.096 95.695 53.421 95.695
 53.635 c 95.695 53.94 95.477 53.983 94.984 54.085 c 94.281 54.237 94.09
 54.237 93.871 54.237 c 92.805 54.237 92.316 53.655 92.316 52.835 c 92.316
 52.1 92.715 51.335 93.137 50.503 c f
99.715 43.292 m 99.711 43.268 l 99.703 43.253 l 99.703 43.233 l 99.695 
43.213 l 99.691 43.19 l 99.664 43.081 l 99.656 43.038 l 99.645 42.995 l 
99.625 42.936 l 99.605 42.835 l 99.602 42.823 l 99.59 42.78 l 99.586 42.764
 l 99.586 42.756 l 99.582 42.745 l 99.582 42.733 l 99.582 42.518 99.754 
42.421 99.902 42.421 c 100.078 42.421 100.227 42.546 100.273 42.628 c 100.324
 42.721 100.398 43.026 100.445 43.225 c 100.496 43.409 100.598 43.846 100.656
 44.077 c 100.715 44.288 100.77 44.499 100.82 44.721 c 100.926 45.128 100.926
 45.143 101.117 45.44 c 101.418 45.909 101.895 46.448 102.637 46.448 c 103.172
 46.448 103.203 46.01 103.203 45.784 c 103.203 45.21 102.793 44.159 102.637
 43.756 c 102.531 43.487 102.496 43.409 102.496 43.237 c 102.496 42.733 
102.914 42.421 103.402 42.421 c 104.352 42.421 104.773 43.733 104.773 43.881
 c 104.773 44.003 104.648 44.003 104.621 44.003 c 104.484 44.003 104.477
 43.948 104.441 43.846 c 104.223 43.081 103.812 42.69 103.43 42.69 c 103.234
 42.69 103.191 42.819 103.191 43.026 c 103.191 43.237 103.238 43.366 103.41
 43.792 c 103.523 44.088 103.914 45.108 103.914 45.631 c 103.914 45.784 
103.914 46.19 103.566 46.46 c 103.402 46.585 103.125 46.721 102.676 46.721
 c 101.824 46.721 101.293 46.159 100.992 45.756 c 100.914 46.565 100.234
 46.721 99.754 46.721 c 98.961 46.721 98.426 46.233 98.141 45.858 c 98.074
 46.51 97.512 46.721 97.117 46.721 c 96.711 46.721 96.488 46.421 96.367 
46.202 c 96.16 45.858 96.023 45.307 96.023 45.256 c 96.023 45.135 96.16 
45.135 96.191 45.135 c 96.32 45.135 96.332 45.167 96.398 45.421 c 96.543
 45.983 96.727 46.448 97.094 46.448 c 97.344 46.448 97.406 46.241 97.406
 45.983 c 97.406 45.807 97.324 45.456 97.254 45.198 c 97.188 44.94 97.094
 44.542 97.043 44.335 c 96.738 43.116 l 96.699 42.995 96.648 42.756 96.648
 42.733 c 96.648 42.518 96.816 42.421 96.969 42.421 c 97.145 42.421 97.293
 42.546 97.344 42.628 c 97.391 42.721 97.469 43.026 97.512 43.225 c 97.559
 43.409 97.664 43.846 97.719 44.077 c 97.781 44.288 97.84 44.499 97.887 
44.721 c 97.988 45.112 98.008 45.186 98.285 45.577 c 98.555 45.956 99 46.448
 99.715 46.448 c 100.266 46.448 100.273 45.963 100.273 45.784 c 100.273 
45.546 100.246 45.421 100.113 44.889 c f
109.918 47.956 m 109.918 48.061 l 109.914 48.163 l 109.914 48.268 l 109.91
 48.381 l 109.895 48.612 l 109.883 48.858 l 109.859 49.108 l 109.828 49.362
 l 109.793 49.628 l 109.75 49.909 l 109.695 50.186 l 109.633 50.463 l 109.559
 50.753 l 109.477 51.042 l 109.383 51.335 l 109.273 51.628 l 109.215 51.776
 l 109.152 51.917 l 109.086 52.065 l 109.02 52.21 l 108.203 53.878 107.035
 54.764 106.898 54.764 c 106.812 54.764 106.762 54.713 106.762 54.631 c 
106.762 54.596 106.762 54.565 107.016 54.319 c 108.352 52.975 109.133 50.807
 109.133 47.956 c 109.133 45.624 108.625 43.233 106.934 41.51 c 106.762 
41.358 106.762 41.319 106.762 41.284 c 106.762 41.202 106.812 41.143 106.898
 41.143 c 107.035 41.143 108.254 42.073 109.062 43.803 c 109.754 45.296 
109.918 46.811 109.918 47.956 c f
87.297 127.995 m 79.57 127.995 l 79.57 127.534 l 79.93 127.534 l 81.07 
127.534 81.102 127.37 81.102 126.842 c 81.102 119.069 l 81.102 118.534 81.07
 118.37 79.93 118.37 c 79.57 118.37 l 79.57 117.909 l 80.094 117.956 81.254
 117.956 81.832 117.956 c 82.441 117.956 83.789 117.956 84.32 117.909 c 
84.32 118.37 l 83.832 118.37 l 82.422 118.37 82.422 118.565 82.422 119.081
 c 82.422 126.94 l 82.422 127.436 82.453 127.534 83.152 127.534 c 84.676
 127.534 l 86.797 127.534 87.109 126.659 87.348 124.659 c 87.719 124.659
 l f
93.242 114.421 m 93.242 114.456 l 93.238 114.46 l 93.238 114.463 l 93.23
 114.483 l 93.223 114.495 l 93.219 114.499 l 93.207 114.514 l 93.199 114.522
 l 93.195 114.534 l 93.172 114.561 l 93.172 114.565 l 93.156 114.577 l 93.113
 114.62 l 93.109 114.628 l 93.066 114.671 l 93.055 114.678 l 93.047 114.694
 l 93.027 114.713 l 93.016 114.721 l 93.008 114.737 l 92.996 114.749 l 91.141
 116.62 90.668 119.417 90.668 121.69 c 90.668 124.264 91.23 126.854 93.055
 128.702 c 93.242 128.881 93.242 128.909 93.242 128.956 c 93.242 129.061
 93.188 129.104 93.102 129.104 c 92.953 129.104 91.617 128.096 90.746 126.213
 c 89.984 124.581 89.809 122.936 89.809 121.69 c 89.809 120.526 89.969 118.737
 90.785 117.061 c 91.672 115.233 92.953 114.272 93.102 114.272 c 93.188 
114.272 93.242 114.315 93.242 114.421 c f
98.004 124.389 m 97.832 124.342 l 97.664 124.288 l 97.492 124.233 l 97.328
 124.159 l 97.168 124.077 l 97.012 123.995 l 96.859 123.901 l 96.703 123.803
 l 96.559 123.702 l 96.418 123.588 l 96.281 123.471 l 96.145 123.346 l 96.016
 123.221 l 95.895 123.088 l 95.773 122.952 l 95.66 122.815 l 95.449 122.522
 l 95.262 122.213 l 95.18 122.053 l 95.102 121.897 l 95.031 121.733 l 94.965
 121.569 l 94.91 121.401 l 94.852 121.233 l 94.812 121.065 l 94.777 120.897
 l 94.746 120.729 l 94.727 120.561 l 94.715 120.389 l 94.711 120.221 l 94.711
 118.796 95.66 117.733 97.055 117.733 c 97.055 118.061 l 96.238 118.061 
95.633 118.678 95.633 119.811 c 95.633 120.737 96.18 123.526 98.18 124.065
 c 98.551 123.381 98.996 122.581 98.996 121.514 c 98.996 120.534 98.434 
118.061 97.055 118.061 c 97.055 117.733 l 98.789 117.733 100.02 120.061 
100.02 122.104 c 100.02 123.456 99.426 124.202 98.922 124.87 c 98.391 125.534
 97.52 126.647 97.52 127.296 c 97.52 127.628 97.809 127.983 98.328 127.983
 c 98.773 127.983 99.07 127.788 99.383 127.581 c 99.68 127.409 99.977 127.206
 100.203 127.206 c 100.566 127.206 100.793 127.565 100.793 127.803 c 100.793
 128.131 100.551 128.171 100.02 128.292 c 99.25 128.452 99.043 128.452 98.805
 128.452 c 97.648 128.452 97.113 127.815 97.113 126.928 c 97.113 126.124
 97.543 125.296 98.004 124.389 c f
105.164 116.538 m 105.16 116.514 l 105.145 116.452 l 105.141 116.428 l 
105.133 116.409 l 105.109 116.315 l 105.086 116.213 l 105.082 116.194 l 
105.07 116.147 l 105.062 116.124 l 105.059 116.108 l 105.047 116.065 l 105.047
 116.046 l 105.035 116.01 l 105.027 115.983 l 105.023 115.956 l 105.023 
115.944 l 105.02 115.94 l 105.02 115.924 l 105.02 115.694 105.211 115.592
 105.367 115.592 c 105.559 115.592 105.723 115.733 105.773 115.819 c 105.832
 115.913 105.906 116.245 105.965 116.463 c 106.016 116.659 106.129 117.139
 106.191 117.397 c 106.25 117.628 106.312 117.858 106.367 118.088 c 106.484
 118.538 106.484 118.553 106.691 118.881 c 107.02 119.389 107.543 119.983
 108.344 119.983 c 108.93 119.983 108.961 119.499 108.961 119.253 c 108.961
 118.628 108.516 117.483 108.344 117.042 c 108.234 116.749 108.191 116.659
 108.191 116.483 c 108.191 115.936 108.648 115.592 109.18 115.592 c 110.215
 115.592 110.672 117.022 110.672 117.178 c 110.672 117.315 110.539 117.315
 110.504 117.315 c 110.363 117.315 110.355 117.253 110.309 117.139 c 110.074
 116.311 109.625 115.881 109.215 115.881 c 108.992 115.881 108.949 116.022
 108.949 116.245 c 108.949 116.483 109.004 116.62 109.188 117.085 c 109.312
 117.409 109.738 118.506 109.738 119.085 c 109.738 119.253 109.738 119.69
 109.355 119.987 c 109.18 120.124 108.875 120.272 108.391 120.272 c 107.457
 120.272 106.887 119.659 106.559 119.221 c 106.473 120.104 105.73 120.272
 105.211 120.272 c 104.348 120.272 103.762 119.745 103.453 119.327 c 103.379
 120.038 102.77 120.272 102.34 120.272 c 101.895 120.272 101.656 119.944
 101.523 119.71 c 101.293 119.327 101.148 118.733 101.148 118.678 c 101.148
 118.546 101.293 118.546 101.328 118.546 c 101.473 118.546 101.48 118.577
 101.555 118.862 c 101.707 119.471 101.91 119.983 102.312 119.983 c 102.582
 119.983 102.652 119.753 102.652 119.471 c 102.652 119.272 102.562 118.897
 102.484 118.612 c 102.414 118.331 102.312 117.909 102.258 117.678 c 101.93
 116.346 l 101.887 116.213 101.824 115.956 101.824 115.924 c 101.824 115.694
 102.012 115.592 102.176 115.592 c 102.363 115.592 102.531 115.733 102.582
 115.819 c 102.633 115.913 102.719 116.245 102.77 116.463 c 102.82 116.659
 102.93 117.139 102.996 117.397 c 103.059 117.628 103.121 117.858 103.176
 118.088 c 103.285 118.522 103.309 118.596 103.605 119.026 c 103.902 119.44
 104.387 119.983 105.164 119.983 c 105.766 119.983 105.773 119.452 105.773
 119.253 c 105.773 118.995 105.746 118.862 105.598 118.276 c f
116.27 121.62 m 116.27 121.729 l 116.266 121.956 l 116.262 122.077 l 116.25
 122.331 l 116.234 122.592 l 116.211 122.87 l 116.176 123.147 l 116.137 
123.44 l 116.086 123.737 l 116.031 124.042 l 115.961 124.354 l 115.879 124.659
 l 115.789 124.979 l 115.688 125.296 l 115.57 125.62 l 115.508 125.772 l
 115.441 125.928 l 115.371 126.088 l 115.297 126.245 l 114.406 128.069 113.129
 129.034 112.98 129.034 c 112.895 129.034 112.832 128.979 112.832 128.885
 c 112.832 128.842 112.832 128.815 113.113 128.542 c 114.566 127.077 115.414
 124.717 115.414 121.62 c 115.414 119.081 114.867 116.471 113.023 114.604
 c 112.832 114.428 112.832 114.397 112.832 114.354 c 112.832 114.26 112.895
 114.202 112.98 114.202 c 113.129 114.202 114.461 115.213 115.34 117.092
 c 116.098 118.721 116.273 120.37 116.273 121.62 c f
1.85909 w
192.973 116.854 m 206.695 102.667 206.156 77.725 206.172 58.733 c S
192.965 0.659 m 206.684 14.85 206.109 39.631 206.164 58.784 c S
1.82085 w
193.301 116.327 m 215.371 116.401 l 215.449 1.061 l 193.605 1.061 l S
215.082 115.338 m 254.898 159.253 l S
232.969 159.881 m 255.617 159.667 l S
193.258 116.467 m 221.867 121.846 236.883 150.077 233.488 160.585 c S
216.031 1.194 m 255.086 45.112 l S
254.582 44.94 m 254.906 160.042 l S
1 0 0 rg
1.39336 w
239.52 47.065 m 237.625 42.436 235.734 37.807 237.5 36.581 c 241.035 34.143
 252.137 50.233 255.668 47.803 c 259.199 45.358 248.098 29.268 251.633 26.831
 c 253.754 25.37 257.059 29.03 260.715 32.44 c S
245.691 117.417 m 243.801 122.049 241.906 126.686 243.676 127.901 c 247.211
 130.335 258.309 114.245 261.844 116.69 c 265.379 119.12 254.277 135.21 
257.809 137.651 c 259.926 139.112 263.234 135.452 266.891 132.042 c S
0 g
71.371 180.577 m 71.371 180.639 l 71.359 180.815 l 71.344 180.924 l 71.332
 180.975 l 71.297 181.116 l 71.281 181.159 l 71.27 181.202 l 71.254 181.241
 l 71.234 181.28 l 71.195 181.35 l 71.176 181.381 l 71.156 181.409 l 71.129
 181.44 l 71.105 181.467 l 71.082 181.491 l 71.059 181.51 l 71.035 181.534
 l 70.953 181.581 l 70.926 181.592 l 70.898 181.6 l 70.867 181.608 l 70.836
 181.612 l 70.809 181.616 l 70.777 181.616 l 70.391 181.616 69.988 181.264
 69.988 180.917 c 69.988 180.772 70.059 180.608 70.207 180.475 c 70.465 
180.249 70.73 179.846 70.73 179.221 c 70.73 178.624 70.445 177.776 69.988
 177.088 c 69.539 176.452 68.988 175.948 68.289 175.948 c 67.434 175.948
 66.977 176.479 66.844 177.28 c 67.008 177.671 67.348 178.624 67.348 179.046
 c 67.348 179.221 67.273 179.37 67.082 179.37 c 66.961 179.37 66.797 179.338
 66.68 179.12 c 66.516 178.823 66.336 177.854 66.336 177.315 c 65.844 176.616
 65.25 175.948 64.312 175.948 c 63.324 175.948 63.016 176.823 63.016 177.655
 c 63.016 179.522 64.535 181.085 64.535 181.276 c 64.535 181.44 64.414 181.561
 64.25 181.561 c 64.055 181.561 63.953 181.366 63.863 181.229 c 63.102 180.128
 62.535 178.358 62.535 177.003 c 62.535 175.975 62.883 174.87 64.102 174.87
 c 65.156 174.87 65.855 175.616 66.395 176.44 c 66.531 175.573 67.109 174.87
 68.035 174.87 c 69.195 174.87 69.914 175.776 70.445 176.897 c 70.805 177.628
 71.371 179.651 71.371 180.577 c h
71.371 180.577 m f
73.582 173.624 m 73.566 173.561 l 73.562 173.534 l 73.551 173.506 l 73.547
 173.479 l 73.539 173.452 l 73.527 173.428 l 73.52 173.405 l 73.512 173.385
 l 73.488 173.346 l 73.457 173.315 l 73.438 173.299 l 73.422 173.284 l 73.375
 173.26 l 73.352 173.253 l 73.32 173.241 l 73.293 173.229 l 73.277 173.229
 l 73.258 173.225 l 73.242 173.217 l 73.223 173.213 l 73.203 173.213 l 73.164
 173.206 l 73.141 173.202 l 73.094 173.202 l 73.07 173.198 l 73.047 173.198
 l 72.992 173.19 l 72.812 173.19 l 72.773 173.186 l 72.668 173.186 l 72.48
 173.186 72.352 173.186 72.352 172.96 c 72.352 172.811 72.48 172.811 72.668
 172.811 c 76.383 172.811 l 76.199 173.186 l 74.781 173.186 l 74.461 173.186
 74.449 173.202 74.449 173.292 c 74.449 173.303 74.449 173.354 74.488 173.506
 c 75.918 179.198 l 76 179.522 76.008 179.553 76.449 179.553 c 77.781 179.553
 l 78.949 179.553 79.93 178.971 79.93 177.553 c 79.93 177.311 79.82 175.51
 78.781 174.323 c 78.375 173.854 77.484 173.186 76.199 173.186 c 76.383 
172.811 l 78.699 172.811 80.914 174.936 80.914 177.206 c 80.914 178.733 
79.863 179.928 78.168 179.928 c 74.375 179.928 l 74.164 179.928 74.047 179.928
 74.047 179.698 c 74.047 179.553 74.156 179.553 74.387 179.553 c 74.555 
179.553 74.594 179.553 74.781 179.53 c 74.992 179.51 75.012 179.487 75.012
 179.385 c 75.012 179.366 75.012 179.315 74.969 179.155 c h
73.582 173.624 m f
Q Q
showpage
%%Trailer
end restore
%%EOF
